C:\Users\Mateusz\Desktop\Magisterka\Semestr1\Tworzenie i utrzymanie czystego kodu\1_GIT\tiuck_lab_2\Mateusz_Baranski_233950\lab5\src\main\java\DivideByZero.java
C:\Users\Mateusz\Desktop\Magisterka\Semestr1\Tworzenie i utrzymanie czystego kodu\1_GIT\tiuck_lab_2\Mateusz_Baranski_233950\lab5\src\main\java\Main.java
C:\Users\Mateusz\Desktop\Magisterka\Semestr1\Tworzenie i utrzymanie czystego kodu\1_GIT\tiuck_lab_2\Mateusz_Baranski_233950\lab5\src\main\java\Calculator.java
